   ___  _   _  _   _  _   _ __   __   ___ _  _ _   ___   _____ _  _   ___   ___   __
  / _ \| | | |/_\ | \| | | |\ \ / /  / __| || | | | \ \ / / __| \| | | _ ) /_\ \ / /
 | (_) | |_| / _ \| .` | | |_\ V /  | (__| __ | |_| |\ V /| _|| .` | | _ \/ _ \ V / 
  \__\_\\___/_/ \_\_|\_| |____|_|    \___|_||_|\___/  |_| |___|_|\_| |___/_/ \_\_|  
                                                                                    